# 3ds Max Wavefront OBJ Exporter v0.97b - (c)2007 guruware
# File Created: 18.08.2017 12:31:01

newmtl wire_000000000
	Ns 32
	d 1
	Tr 0
	Tf 1 1 1
	illum 2
	Ka 0.000000 0.000000 0.000000
	Kd 0.000000 0.000000 0.000000
	Ks 0.350000 0.350000 0.350000
